=======================================
Ciphertext Group 1 for Bit Fault Attacks
Correct:e66d092257d669f2dc8ea64e6cde1665
Faulty :8c6d092257d669f2dc8ea64e6cde1665
Faulty :bc6d092257d669f2dc8ea64e6cde1665
Faulty :bd6d092257d669f2dc8ea64e6cde1665
Faulty :bd6d092257d669f2dc8ea64e6cde1665
Faulty :f46d092257d669f2dc8ea64e6cde1665
Faulty :e66d092257d669f2dc8ea64e6c111665
Faulty :e66d092257d669f2dc8ea64e6c9e1665
Faulty :e66d092257d669f2dc8ea64e6ccf1665
Faulty :e66d092257d669f2dc8ea64e6ca61665
Faulty :e66d092257d669f2dc8ea64e6c171665
Faulty :e66d092257d669f2dc8ead4e6cde1665
Faulty :e66d092257d669f2dc8e764e6cde1665
Faulty :e66d092257d669f2dc8e984e6cde1665
Faulty :e66d092257d669f2dc8ece4e6cde1665
Faulty :e66d092257d669f2dc8ec74e6cde1665
Faulty :e66d092257d669d3dc8ea64e6cde1665
Faulty :e66d092257d669a1dc8ea64e6cde1665
Faulty :e66d092257d669a6dc8ea64e6cde1665
Faulty :e66d092257d669d3dc8ea64e6cde1665
Faulty :e66d092257d66974dc8ea64e6cde1665
Faulty :e66d09221ed669f2dc8ea64e6cde1665
Faulty :e66d09221ed669f2dc8ea64e6cde1665
Faulty :e66d09226cd669f2dc8ea64e6cde1665
Faulty :e66d0922bdd669f2dc8ea64e6cde1665
Faulty :e66d09225ed669f2dc8ea64e6cde1665
Faulty :e692092257d669f2dc8ea64e6cde1665
Faulty :e628092257d669f2dc8ea64e6cde1665
Faulty :e63e092257d669f2dc8ea64e6cde1665
Faulty :e63b092257d669f2dc8ea64e6cde1665
Faulty :e63b092257d669f2dc8ea64e6cde1665
Faulty :e66d092257d669f2dc8ea64e6cde7965
Faulty :e66d092257d669f2dc8ea64e6cde7265
Faulty :e66d092257d669f2dc8ea64e6cdea465
Faulty :e66d092257d669f2dc8ea64e6cdea365
Faulty :e66d092257d669f2dc8ea64e6cdea065
Faulty :e66d092257d669f2dc8ea6686cde1665
Faulty :e66d092257d669f2dc8ea62d6cde1665
Faulty :e66d092257d669f2dc8ea6696cde1665
Faulty :e66d092257d669f2dc8ea6ed6cde1665
Faulty :e66d092257d669f2dc8ea6ae6cde1665
Faulty :e66d092257d669f2598ea64e6cde1665
Faulty :e66d092257d669f22b8ea64e6cde1665
Faulty :e66d092257d669f25b8ea64e6cde1665
Faulty :e66d092257d669f2978ea64e6cde1665
Faulty :e66d092257d669f23a8ea64e6cde1665
Faulty :e66d092257e569f2dc8ea64e6cde1665
Faulty :e66d092257fb69f2dc8ea64e6cde1665
Faulty :e66d092257bd69f2dc8ea64e6cde1665
Faulty :e66d092257bb69f2dc8ea64e6cde1665
Faulty :e66d0922572a69f2dc8ea64e6cde1665
Faulty :e66d002257d669f2dc8ea64e6cde1665
Faulty :e66de32257d669f2dc8ea64e6cde1665
Faulty :e66d5f2257d669f2dc8ea64e6cde1665
Faulty :e66d002257d669f2dc8ea64e6cde1665
Faulty :e66d002257d669f2dc8ea64e6cde1665
Faulty :e66d092257d669f2dc8ea64e6cde1674
Faulty :e66d092257d669f2dc8ea64e6cde1606
Faulty :e66d092257d669f2dc8ea64e6cde161d
Faulty :e66d092257d669f2dc8ea64e6cde16ac
Faulty :e66d092257d669f2dc8ea64e6cde1674
Faulty :e66d092257d669f2dc8ea64e3ede1665
Faulty :e66d092257d669f2dc8ea64e0cde1665
Faulty :e66d092257d669f2dc8ea64e84de1665
Faulty :e66d092257d669f2dc8ea64e3ede1665
Faulty :e66d092257d669f2dc8ea64e0ade1665
Faulty :e66d092257d669f2dc44a64e6cde1665
Faulty :e66d092257d669f2dc99a64e6cde1665
Faulty :e66d092257d669f2dc0ea64e6cde1665
Faulty :e66d092257d669f2dc97a64e6cde1665
Faulty :e66d092257d669f2dcafa64e6cde1665
Faulty :e66d092257d634f2dc8ea64e6cde1665
Faulty :e66d092257d665f2dc8ea64e6cde1665
Faulty :e66d092257d66ff2dc8ea64e6cde1665
Faulty :e66d092257d66ef2dc8ea64e6cde1665
Faulty :e66d092257d639f2dc8ea64e6cde1665
Faulty :e66d092d57d669f2dc8ea64e6cde1665
Faulty :e66d09f757d669f2dc8ea64e6cde1665
Faulty :e66d09f757d669f2dc8ea64e6cde1665
Faulty :e66d096757d669f2dc8ea64e6cde1665
Faulty :e66d09e157d669f2dc8ea64e6cde1665
=======================================
Ciphertext Group 2 for Byte Fault Attacks
Correct:2305ddf08b4b28e425ec0483f8481ae6
Faulty :6d05ddf08b4b28aa25ec5f83f81c1ae6
Faulty :1b05ddf08b4b28b525ec6083f8e91ae6
Faulty :1b05ddf08b4b28b525ec6083f8e91ae6
Faulty :2d05ddf08b4b280825ec7383f8631ae6
Faulty :0b05ddf08b4b286e25ec4683f8a11ae6
Faulty :2305dd418b4b2ae4259704836e481ae6
Faulty :2305dd218b4b00e425ef048320481ae6
Faulty :2305dd248b4b4fe425300483c1481ae6
Faulty :2305ddd38b4b92e425610483d8481ae6
Faulty :2305ddab8b4bb0e425ea0483b6481ae6
Faulty :230566f08bd928e453ec0483f8481a91
Faulty :23052ff08b2c28e4f4ec0483f8481ab6
Faulty :2305f9f08b1828e401ec0483f8481ab2
Faulty :230581f08b9028e41bec0483f8481af7
Faulty :2305e9f08b1028e46fec0483f8481a9d
Faulty :23a2ddf0e54b28e425ec04a5f84848e6
Faulty :2348ddf02b4b28e425ec04b8f848b3e6
Faulty :2304ddf0cf4b28e425ec04f7f848c6e6
Faulty :2329ddf0174b28e425ec04caf84889e6
Faulty :23c2ddf0c44b28e425ec04c7f84818e6
